{
	"openInBrowser": {
		"message": "Otwórz w przeglądarce",
		"description": "Click to open link in default browser."
	},
	
	"openHere": {
		"message": "Otwórz tutaj",
		"description": "Click to open link in current Firefox session."
	},
	
	"cancel": {
		"message": "Anuluj",
		"description": "Cancel/close dialog."
	}
}
